<svg id="Layer_1" data-name="Layer 1" xmlns="http://www.w3.org/2000/svg" viewBox="0 0 450.04 512" fill="#fff">
   <path class="cls-1" d="M232.24,119.8c-13.39,0-24.2,10.81-24.2,24.2s10.81,24.2,24.2,24.2h24.2l-43.56,58.08c-5.52,7.34-6.35,17.17-2.27,25.33,4.08,8.17,12.48,13.39,21.63,13.39h72.6c13.39,0,24.2-10.81,24.2-24.2s-10.81-24.2-24.2-24.2h-24.2l43.56-58.08c5.52-7.34,6.35-17.17,2.27-25.33s-12.48-13.39-21.63-13.39h-72.6Z"/>
  <path class="cls-1" d="M32.02,256C14.32,256,.02,270.3.02,288s14.3,32,32,32h91.7L7.42,459.5c-7.9,9.5-9.7,22.8-4.4,34.1,5.3,11.3,16.6,18.4,29,18.4h160c17.7,0,32-14.3,32-32s-14.3-32-32-32h-91.7l116.3-139.5c7.9-9.5,9.7-22.8,4.4-34.1s-16.6-18.4-29-18.4H32.02Z"/>
  <path class="cls-1" d="M353.24,0c-13.39,0-24.2,10.81-24.2,24.2s10.81,24.2,24.2,24.2h24.2l-43.56,58.08c-5.52,7.34-6.35,17.17-2.27,25.33,4.08,8.17,12.48,13.39,21.63,13.39h72.6c13.39,0,24.2-10.81,24.2-24.2s-10.81-24.2-24.2-24.2h-24.2l43.56-58.08c5.52-7.34,6.35-17.17,2.27-25.33-4.08-8.17-12.48-13.39-21.63-13.39h-72.6Z"/>
</svg>