
<svg id="Layer_1" data-name="Layer 1" xmlns="http://www.w3.org/2000/svg" viewBox="0 0 352 512" fill="#fff">
  <path class="cls-1" d="M64,176c0-61.86,50.14-112,112-112s112,50.14,112,112-50.14,112-112,112-112-50.14-112-112ZM208,349.1c81.9-15,144-86.8,144-173.1C352,78.8,273.2,0,176,0S0,78.8,0,176c0,86.3,62.1,158.1,144,173.1v34.9h-32c-17.7,0-32,14.3-32,32s14.3,32,32,32h32v32c0,17.7,14.3,32,32,32s32-14.3,32-32v-32h32c17.7,0,32-14.3,32-32s-14.3-32-32-32h-32v-34.9Z"/>
</svg>